C:\Users\consultadd 1\Desktop\desktop_S\java\New folder\html+spring\src\test\java\com\item\demo\item\ItemsControllerTest.java
C:\Users\consultadd 1\Desktop\desktop_S\java\New folder\html+spring\src\test\java\com\item\demo\item\ItemApplicationTests.java
C:\Users\consultadd 1\Desktop\desktop_S\java\New folder\html+spring\src\test\java\com\item\demo\item\mockitoTest.java
